3 Chapter 13: Standardization and the Parametric G-Formula | Coding Causal Inference in R
…
This is the code for Chapter 13

library(tidyverse)
library(haven)
library(broom)
library(boot)

Instead of re-cleaning the NHEFS data we used in Chapter 12, we will load it with the cidata package, which contains all the data we need for this chapter.

# contains `nhefs`, `nhefs_codebook`, and `greek_data`, as well
library(cidata)

nhefs_complete

## # A tibble: 1,566 x 78
##       id numerator_sex numerator  seqn  qsmk death yrdth modth dadth   sbp
##    <int>         <dbl>     <dbl> <dbl> <dbl> <dbl> <dbl> <dbl> <dbl> <dbl>
##  1     1         0.711     0.743   233     0     0    NA    NA    NA   175
##  2     2         0.711     0.743   235     0     0    NA    NA    NA   123
##  3     3         0.772     0.743   244     0     0    NA    NA    NA   115
##  4     4         0.711     0.743   245     0     1    85     2    14   148
##  5     5         0.711     0.743   252     0     0    NA    NA    NA   118
##  6     6         0.772     0.743   257     0     0    NA    NA    NA   141
##  7     7         0.772     0.743   262     0     0    NA    NA    NA   132
##  8     8         0.772     0.743   266     0     0    NA    NA    NA   100
##  9     9         0.711     0.743   419     0     1    84    10    13   163
## 10    10         0.711     0.743   420     0     1    86    10    17   184
## # … with 1,556 more rows, and 68 more variables: dbp <dbl>, sex <fct>,
## #   age <dbl>, race <fct>, income <dbl>, marital <dbl>, school <dbl>,
## #   education <fct>, ht <dbl>, wt71 <dbl>, wt82 <dbl>, wt82_71 <dbl>,
## #   birthplace <dbl>, smokeintensity <dbl>, smkintensity82_71 <dbl>,
## #   smokeyrs <dbl>, asthma <dbl>, bronch <dbl>, tb <dbl>, hf <dbl>,
## #   hbp <dbl>, pepticulcer <dbl>, colitis <dbl>, hepatitis <dbl>,
## #   chroniccough <dbl>, hayfever <dbl>, diabetes <dbl>, polio <dbl>,
## #   tumor <dbl>, nervousbreak <dbl>, alcoholpy <dbl>, alcoholfreq <dbl>,
## #   alcoholtype <dbl>, alcoholhowmuch <dbl>, pica <dbl>, headache <dbl>,
…
