4 Chapter 14: G-Estimation of Structural Nested Models | Coding Causal Inference in R
…
The way that we have to find the best value for psi is by brute force: we will search values of psi within a plausible range. Here, we’ll check from 2 to 5 by values of .1, meaning we will actually fit 31 models. Then, we’ll figure out which value of psi produces the h_psi closest to null. To fit the models, we’ll map the compute_h_psi() function to each value with purrr::map_dfr(). (The map_dfr() returns a data frame, so we can manipulate it with dplyr.)

# search for h_psi for values of psi from 2 to 5 by .1
psi_search <- map_dfr(seq(2, 5, by = .1), compute_h_psi)

Because we didn’t search quite as finely as the authors, we get an answer that is close but not quite what they have. Had we searched more finely (e.g. by = .001), we would have done so but would need to fit thousands of models.

Since we want the estimate closest to 0, we’ll sort by the absolute value of estimate.

psi_search %>% 
  arrange(abs(estimate))

## # A tibble: 31 x 3
##      psi  estimate p.value
##    <dbl>     <dbl>   <dbl>
##  1   3.5 -0.000735   0.934
##  2   3.4  0.00116    0.896
##  3   3.6 -0.00263    0.768
##  4   3.3  0.00304    0.729
##  5   3.7 -0.00453    0.612
##  6   3.2  0.00492    0.574
##  7   3.8 -0.00644    0.474
##  8   3.1  0.00679    0.435
##  9   3.9 -0.00836    0.356
## 10   3    0.00866    0.318
## # … with 21 more rows
…
