2 Chapter 12: IP Weighting and Marginal Structural Models | Coding Causal Inference in R
…
Causal Inference uses data from NHEFS. To read in the SAS file, use read_sas() from the haven package.

#  read the SAS data file
nhefs <- read_sas("data/nhefs.sas7bdat")

nhefs

## # A tibble: 1,629 x 64
##     seqn  qsmk death yrdth modth dadth   sbp   dbp   sex   age  race income
##    <dbl> <dbl> <dbl> <dbl> <dbl> <dbl> <dbl> <dbl> <dbl> <dbl> <dbl>  <dbl>
##  1   233     0     0    NA    NA    NA   175    96     0    42     1     19
##  2   235     0     0    NA    NA    NA   123    80     0    36     0     18
##  3   244     0     0    NA    NA    NA   115    75     1    56     1     15
##  4   245     0     1    85     2    14   148    78     0    68     1     15
##  5   252     0     0    NA    NA    NA   118    77     0    40     0     18
##  6   257     0     0    NA    NA    NA   141    83     1    43     1     11
##  7   262     0     0    NA    NA    NA   132    69     1    56     0     19
##  8   266     0     0    NA    NA    NA   100    53     1    29     0     22
##  9   419     0     1    84    10    13   163    79     0    51     0     18
## 10   420     0     1    86    10    17   184   106     0    43     0     16
## # … with 1,619 more rows, and 52 more variables: marital <dbl>,
## #   school <dbl>, education <dbl>, ht <dbl>, wt71 <dbl>, wt82 <dbl>,
## #   wt82_71 <dbl>, birthplace <dbl>, smokeintensity <dbl>,
## #   smkintensity82_71 <dbl>, smokeyrs <dbl>, asthma <dbl>, bronch <dbl>,
## #   tb <dbl>, hf <dbl>, hbp <dbl>, pepticulcer <dbl>, colitis <dbl>,
## #   hepatitis <dbl>, chroniccough <dbl>, hayfever <dbl>, diabetes <dbl>,
## #   polio <dbl>, tumor <dbl>, nervousbreak <dbl>, alcoholpy <dbl>,
## #   alcoholfreq <dbl>, alcoholtype <dbl>, alcoholhowmuch <dbl>,
## #   pica <dbl>, headache <dbl>, otherpain <dbl>, weakheart <dbl>,
…
2.4 Program 12.4

The workflow for continuous exposures is very similar to binary exposure. The main differences are that the model needs to be appropriate for continuous variable and in how the weights are calculated. We fit the models for smoking intensity, a continuous exposure, using OLS with lm(): one for the numerator without predictors and one for the denominator with the confounders. Then, we use augment to get the predicted values for smoking intensity (.fitted) and their standard error (.sigma). Using the template dnorm(true_value, predicted_value, mean(standard_error, rm.na = TRUE)), we can fit values to use for the stabilized weights.

nhefs_light_smokers <- nhefs %>% 
  drop_na(qsmk, sex, race, age, school, smokeintensity, smokeyrs, exercise, active, wt71, wt82, wt82_71, censored) %>% 
  filter(smokeintensity <= 25)

nhefs_light_smokers

## # A tibble: 1,162 x 67
##     seqn  qsmk death yrdth modth dadth   sbp   dbp sex     age race  income
##    <dbl> <dbl> <dbl> <dbl> <dbl> <dbl> <dbl> <dbl> <fct> <dbl> <fct>  <dbl>
##  1   235     0     0    NA    NA    NA   123    80 0        36 0         18
##  2   244     0     0    NA    NA    NA   115    75 1        56 1         15
##  3   245     0     1    85     2    14   148    78 0        68 1         15
##  4   252     0     0    NA    NA    NA   118    77 0        40 0         18
##  5   257     0     0    NA    NA    NA   141    83 1        43 1         11
##  6   262     0     0    NA    NA    NA   132    69 1        56 0         19
##  7   266     0     0    NA    NA    NA   100    53 1        29 0         22
##  8   419     0     1    84    10    13   163    79 0        51 0         18
##  9   420     0     1    86    10    17   184   106 0        43 0         16
## 10   434     0     0    NA    NA    NA   127    80 1        54 0         16
## # … with 1,152 more rows, and 55 more variables: marital <dbl>,
## #   school <dbl>, education <fct>, ht <dbl>, wt71 <dbl>, wt82 <dbl>,
## #   wt82_71 <dbl>, birthplace <dbl>, smokeintensity <dbl>,
## #   smkintensity82_71 <dbl>, smokeyrs <dbl>, asthma <dbl>, bronch <dbl>,
## #   tb <dbl>, hf <dbl>, hbp <dbl>, pepticulcer <dbl>, colitis <dbl>,
## #   hepatitis <dbl>, chroniccough <dbl>, hayfever <dbl>, diabetes <dbl>,
## #   polio <dbl>, tumor <dbl>, nervousbreak <dbl>, alcoholpy <dbl>,
## #   alcoholfreq <dbl>, alcoholtype <dbl>, alcoholhowmuch <dbl>,
## #   pica <dbl>, headache <dbl>, otherpain <dbl>, weakheart <dbl>,
…
