8 Chapter 14 | Coding Causal Inference in R
…
compute_h_psi(3.446)

## # A tibble: 1 x 3
##     psi    estimate p.value
##   <dbl>       <dbl>   <dbl>
## 1  3.45 -0.00000190   1.000

psi_search <- map_dfr(seq(2, 5, by = .1), compute_h_psi)

psi_search %>% 
  arrange(abs(estimate))

## # A tibble: 31 x 3
##      psi  estimate p.value
##    <dbl>     <dbl>   <dbl>
##  1   3.4  0.000862   0.922
##  2   3.5 -0.00102    0.909
##  3   3.3  0.00274    0.755
##  4   3.6 -0.00290    0.744
##  5   3.2  0.00461    0.598
##  6   3.7 -0.00480    0.592
##  7   3.1  0.00647    0.457
##  8   3.8 -0.00670    0.457
##  9   3    0.00833    0.337
## 10   3.9 -0.00860    0.342
## # … with 21 more rows
…
